============================================================
Log File "Logger.txt" Has Been Created Successfully !!!
============================================================

Framework:: Log file Successfully Created. 
"./src/shaders/lights/diffuse.vs" : Vertex Shader Compilation Succeeded.
"./src/shaders/lights/diffuse.fs" : Fragment Shader Compilation Succeeded.
Shader Program Linking Succeeded.
Initializing Successfull:: in Function <WinMain>, at Line <181>
============================================================
Log File "Logger.txt" Has Been Closed Successfully !!!
============================================================
